module gitlab.com/gotools-land/go-builder-generator

go 1.22

require (
	github.com/fatih/structtag v1.2.0
	github.com/go-playground/validator/v10 v10.18.0
	github.com/huandu/xstrings v1.4.0
	github.com/sirupsen/logrus v1.9.3
	github.com/spf13/cobra v1.8.0
	github.com/stretchr/testify v1.8.4
	gitlab.com/gotools-land/gtl/v2 v2.0.2
	golang.org/x/mod v0.15.0
	golang.org/x/tools v0.18.0
)

require (
	github.com/davecgh/go-spew v1.1.1 // indirect
	github.com/gabriel-vasile/mimetype v1.4.3 // indirect
	github.com/go-playground/locales v0.14.1 // indirect
	github.com/go-playground/universal-translator v0.18.1 // indirect
	github.com/inconshreveable/mousetrap v1.1.0 // indirect
	github.com/kr/text v0.2.0 // indirect
	github.com/leodido/go-urn v1.4.0 // indirect
	github.com/pmezard/go-difflib v1.0.0 // indirect
	github.com/sergi/go-diff v1.3.1 // indirect
	github.com/spf13/pflag v1.0.5 // indirect
	golang.org/x/crypto v0.19.0 // indirect
	golang.org/x/net v0.21.0 // indirect
	golang.org/x/sys v0.17.0 // indirect
	golang.org/x/text v0.14.0 // indirect
	gopkg.in/yaml.v3 v3.0.1 // indirect
)
